/home/developer/altera/nios2-linux/linux-2.6/mm/rmap.c: In function 'try_to_unmap_cluster':
/home/developer/altera/nios2-linux/linux-2.6/mm/rmap.c:1389: warning: comparison of distinct pointer types lacks a cast
/home/developer/altera/nios2-linux/linux-2.6/mm/rmap.c:1390: warning: comparison of distinct pointer types lacks a cast
/home/developer/altera/nios2-linux/linux-2.6/mm/rmap.c: In function 'try_to_unmap_file':
/home/developer/altera/nios2-linux/linux-2.6/mm/rmap.c:1605: warning: comparison of distinct pointer types lacks a cast
/home/developer/altera/nios2-linux/linux-2.6/mm/rmap.c:1605: warning: comparison of distinct pointer types lacks a cast
/home/developer/altera/nios2-linux/linux-2.6/mm/rmap.c:1607: warning: comparison of distinct pointer types lacks a cast
/home/developer/altera/nios2-linux/linux-2.6/mm/rmap.c:1618: warning: comparison of distinct pointer types lacks a cast
/home/developer/altera/nios2-linux/linux-2.6/mm/rmap.c:1626: warning: comparison of distinct pointer types lacks a cast
